escuela_global_talk
…
                   mpg cyl  disp  hp drat    wt  qsec vs am gear
Mazda RX4         21.0   6 160.0 110 3.90 2.620 16.46  0  1    4
Mazda RX4 Wag     21.0   6 160.0 110 3.90 2.875 17.02  0  1    4
Datsun 710        22.8   4 108.0  93 3.85 2.320 18.61  1  1    4
Hornet 4 Drive    21.4   6 258.0 110 3.08 3.215 19.44  1  0    3
Hornet Sportabout 18.7   8 360.0 175 3.15 3.440 17.02  0  0    3
Valiant           18.1   6 225.0 105 2.76 3.460 20.22  1  0    3
Duster 360        14.3   8 360.0 245 3.21 3.570 15.84  0  0    3
Merc 240D         24.4   4 146.7  62 3.69 3.190 20.00  1  0    4
Merc 230          22.8   4 140.8  95 3.92 3.150 22.90  1  0    4

mtcars |> 
  tibble::as_tibble()

# A tibble: 32 × 11
     mpg   cyl  disp    hp  drat    wt  qsec    vs    am  gear  carb
   <dbl> <dbl> <dbl> <dbl> <dbl> <dbl> <dbl> <dbl> <dbl> <dbl> <dbl>
 1  21       6  160    110  3.9   2.62  16.5     0     1     4     4
 2  21       6  160    110  3.9   2.88  17.0     0     1     4     4
 3  22.8     4  108     93  3.85  2.32  18.6     1     1     4     1
 4  21.4     6  258    110  3.08  3.22  19.4     1     0     3     1
 5  18.7     8  360    175  3.15  3.44  17.0     0     0     3     2
 6  18.1     6  225    105  2.76  3.46  20.2     1     0     3     1
 7  14.3     8  360    245  3.21  3.57  15.8     0     0     3     4
 8  24.4     4  147.    62  3.69  3.19  20       1     0     4     2
 9  22.8     4  141.    95  3.92  3.15  22.9     1     0     4     2
10  19.2     6  168.   123  3.92  3.44  18.3     1     0     4     4
# ℹ 22 more rows
…
arrange() cambia el orden de las filas.

Selecciona (y opcionalmente renombra) variables en un marco de datos, utilizando un mini-lenguaje conciso que hace fácil referirse a las variables según su nombre. Por ejemplo:

Por nombre, a:f selecciona todas las columnas desde “a” a la izquierda hasta “f” a la derecha.

Por tipo, where(is.numeric) selecciona todas las columnas numéricas.

penguins |> 
  select(species,
         sex,
         body_mass_g)

# A tibble: 344 × 3
   species sex    body_mass_g
   <fct>   <fct>        <int>
 1 Adelie  male          3750
 2 Adelie  female        3800
 3 Adelie  female        3250
 4 Adelie  <NA>            NA
 5 Adelie  female        3450
 6 Adelie  male          3650
 7 Adelie  female        3625
 8 Adelie  male          4675
 9 Adelie  <NA>          3475
10 Adelie  <NA>          4250
# ℹ 334 more rows

arrange() es una función de dplyr que permite ordenar las filas de un data.frame según los valores de una o varias columnas seleccionadas.

desc() transforma un vector en un formato que será ordenado en orden descendente.

penguins |>
  select(species, sex, body_mass_g) |>
  arrange(desc(body_mass_g))

# A tibble: 344 × 3
   species sex   body_mass_g
   <fct>   <fct>       <int>
 1 Gentoo  male         6300
 2 Gentoo  male         6050
 3 Gentoo  male         6000
 4 Gentoo  male         6000
 5 Gentoo  male         5950
 6 Gentoo  male         5950
 7 Gentoo  male         5850
 8 Gentoo  male         5850
 9 Gentoo  male         5850
10 Gentoo  male         5800
# ℹ 334 more rows
…
Sub conjuntos de las cadenas de texto str_sub().

Manejar longitudes de cadenas de texto str_length().

Modificar las cadenas de texto str_to_upper() - str_to_lower() -str_to_sentence()

Unir y dividir cadenas de texto str_c() - str_split()

Mayusculas

penguins |>
  select(species, island) |>
  mutate(ISLAND = str_to_upper(island))

# A tibble: 344 × 3
   species island    ISLAND   
   <fct>   <fct>     <chr>    
 1 Adelie  Torgersen TORGERSEN
 2 Adelie  Torgersen TORGERSEN
 3 Adelie  Torgersen TORGERSEN
 4 Adelie  Torgersen TORGERSEN
 5 Adelie  Torgersen TORGERSEN
 6 Adelie  Torgersen TORGERSEN
 7 Adelie  Torgersen TORGERSEN
 8 Adelie  Torgersen TORGERSEN
 9 Adelie  Torgersen TORGERSEN
10 Adelie  Torgersen TORGERSEN
# ℹ 334 more rows

Minusculas.

penguins |>
  select(species, island) |>
  mutate(ISLAND = str_to_lower(island))

# A tibble: 344 × 3
   species island    ISLAND   
   <fct>   <fct>     <chr>    
 1 Adelie  Torgersen torgersen
 2 Adelie  Torgersen torgersen
 3 Adelie  Torgersen torgersen
 4 Adelie  Torgersen torgersen
 5 Adelie  Torgersen torgersen
 6 Adelie  Torgersen torgersen
 7 Adelie  Torgersen torgersen
 8 Adelie  Torgersen torgersen
 9 Adelie  Torgersen torgersen
10 Adelie  Torgersen torgersen
# ℹ 334 more rows

str_detect()

“Adelie” - “Gentoo” - “Chinstrap”

penguins |>
  select(species, island) |>
  filter(str_detect(species, "Gent"))

# A tibble: 124 × 2
   species island
   <fct>   <fct> 
 1 Gentoo  Biscoe
 2 Gentoo  Biscoe
 3 Gentoo  Biscoe
 4 Gentoo  Biscoe
 5 Gentoo  Biscoe
 6 Gentoo  Biscoe
 7 Gentoo  Biscoe
 8 Gentoo  Biscoe
 9 Gentoo  Biscoe
10 Gentoo  Biscoe
# ℹ 114 more rows

Expresiones reculares

’Torgersen” - “Biscoe” - “Dream”

penguins |>
  select(species, island) |>
  filter(str_detect(island, "^T"))

# A tibble: 52 × 2
   species island   
   <fct>   <fct>    
 1 Adelie  Torgersen
 2 Adelie  Torgersen
 3 Adelie  Torgersen
 4 Adelie  Torgersen
 5 Adelie  Torgersen
 6 Adelie  Torgersen
 7 Adelie  Torgersen
 8 Adelie  Torgersen
 9 Adelie  Torgersen
10 Adelie  Torgersen
# ℹ 42 more rows
…
pivot_wider()

penguins |>
  pivot_wider(names_from = sex,
              values_from = body_mass_g)

# A tibble: 344 × 9
   species island    bill_length_mm bill_depth_mm flipper_length_mm  year  male
   <fct>   <fct>              <dbl>         <dbl>             <int> <int> <int>
 1 Adelie  Torgersen           39.1          18.7               181  2007  3750
 2 Adelie  Torgersen           39.5          17.4               186  2007    NA
 3 Adelie  Torgersen           40.3          18                 195  2007    NA
 4 Adelie  Torgersen           NA            NA                  NA  2007    NA
 5 Adelie  Torgersen           36.7          19.3               193  2007    NA
 6 Adelie  Torgersen           39.3          20.6               190  2007  3650
 7 Adelie  Torgersen           38.9          17.8               181  2007    NA
 8 Adelie  Torgersen           39.2          19.6               195  2007  4675
 9 Adelie  Torgersen           34.1          18.1               193  2007    NA
10 Adelie  Torgersen           42            20.2               190  2007    NA
# ℹ 334 more rows
# ℹ 2 more variables: female <int>, `NA` <int>

pivot_longer()

untidy_penguins |>
  pivot_longer(cols = male:`NA`,           
               names_to = "sex",           
               values_to = "body_mass_g")

# A tibble: 1,032 × 8
   species island    bill_length_mm bill_depth_mm flipper_length_mm  year sex   
   <fct>   <fct>              <dbl>         <dbl>             <int> <int> <chr> 
 1 Adelie  Torgersen           39.1          18.7               181  2007 male  
 2 Adelie  Torgersen           39.1          18.7               181  2007 female
 3 Adelie  Torgersen           39.1          18.7               181  2007 NA    
 4 Adelie  Torgersen           39.5          17.4               186  2007 male  
 5 Adelie  Torgersen           39.5          17.4               186  2007 female
 6 Adelie  Torgersen           39.5          17.4               186  2007 NA    
 7 Adelie  Torgersen           40.3          18                 195  2007 male  
 8 Adelie  Torgersen           40.3          18                 195  2007 female
 9 Adelie  Torgersen           40.3          18                 195  2007 NA    
10 Adelie  Torgersen           NA            NA                  NA  2007 male  
# ℹ 1,022 more rows
# ℹ 1 more variable: body_mass_g <int>
…
